testsuite/bsc.vcdcheck/gcd_vlog.vcd
$date
	Fri May  9 09:54:13 2008
$end
$version
	Icarus Verilog
$end
$timescale
	1s
$end
$scope module main $end
$var reg 1 ! CLK $end
$var reg 1 " RST_N $end
$var reg 32 # cycle[31:0] $end
$var reg 1 $ do_cycles $end
$var reg 1 % do_dump $end
$scope module top $end
$var wire 1 & CAN_FIRE_RL_exit $end
$var wire 1 ' CAN_FIRE_RL_rule1SendInput $end
$var wire 1 ( CAN_FIRE_RL_rule2GetResult $end
$var wire 1 ! CLK $end
$var wire 1 " RST_N $end
$var wire 1 & WILL_FIRE_RL_exit $end
$var wire 1 ' WILL_FIRE_RL_rule1SendInput $end
$var wire 1 ( WILL_FIRE_RL_rule2GetResult $end
$var wire 1 ' gcd$EN_start $end
$var wire 1 ( gcd$RDY_result $end
$var wire 1 ' gcd$RDY_start $end
$var wire 51 ) gcd$result[50:0] $end
$var wire 51 * gcd$start_num1[50:0] $end
$var wire 51 + gcd$start_num2[50:0] $end
$var wire 51 , the_count1$D_IN[50:0] $end
$var wire 1 ' the_count1$EN $end
$var wire 51 - the_count2$D_IN[50:0] $end
$var wire 1 ' the_count2$EN $end
$var wire 51 . the_tbresult$D_IN[50:0] $end
$var wire 1 ( the_tbresult$EN $end
$var reg 51 / the_count1[50:0] $end
$var reg 51 0 the_count2[50:0] $end
$var reg 51 1 the_tbresult[50:0] $end
$scope module gcd $end
$var wire 1 2 CAN_FIRE_RL_flip $end
$var wire 1 3 CAN_FIRE_RL_sub $end
$var wire 1 4 CAN_FIRE_start $end
$var wire 1 ! CLK $end
$var wire 1 ' EN_start $end
$var wire 51 5 MUX_the_y$write_1__VAL_3[50:0] $end
$var wire 1 ( RDY_result $end
$var wire 1 ' RDY_start $end
$var wire 1 " RST_N $end
$var wire 1 2 WILL_FIRE_RL_flip $end
$var wire 1 3 WILL_FIRE_RL_sub $end
$var wire 1 ' WILL_FIRE_start $end
$var wire 51 6 result[50:0] $end
$var wire 51 7 start_num1[50:0] $end
$var wire 51 8 start_num2[50:0] $end
$var wire 51 9 the_x$D_IN[50:0] $end
$var wire 1 : the_x$EN $end
$var wire 1 ; the_x_ULE_the_y___d3 $end
$var wire 1 < the_y$EN $end
$var reg 51 = the_x[50:0] $end
$var reg 51 > the_y[50:0] $end
$var reg 51 ? the_y$D_IN[50:0] $end
$upscope $end
$upscope $end
$upscope $end
$enddefinitions $end
#0
$dumpvars
b0 ?
b10101010101010101010101010101010101010101010101010 >
b10101010101010101010101010101010101010101010101010 =
1<
1;
0:
b10101010101010101010101010101010101010101010101010 9
b10101010101010101010101010101010101010101010101010 8
b10101010101010101010101010101010101010101010101010 7
b10101010101010101010101010101010101010101010101010 6
b0 5
04
13
02
b10101010101010101010101010101010101010101010101010 1
b10101010101010101010101010101010101010101010101010 0
b10101010101010101010101010101010101010101010101010 /
b10101010101010101010101010101010101010101010101010 .
b10101010101010101010101010101010101010101010101100 -
b10101010101010101010101010101010101010101010101101 ,
b10101010101010101010101010101010101010101010101010 +
b10101010101010101010101010101010101010101010101010 *
b10101010101010101010101010101010101010101010101010 )
0(
0'
1&
1%
0$
b0 #
0"
x!
$end
#1
1:
1(
14
1'
02
1<
03
b101 ?
b101010101010101010101010101010101010101010101010110 5
b10011 9
0;
b101 +
b101 8
0&
b10110 ,
b10011 *
b10011 7
b0 >
b0 1
b111 -
b101 0
b10011 /
1!
b1 #
#2
1"
#5
0!
#10
1<
12
1:
0(
04
0'
b101 9
b10011 ?
b1001 -
b111 +
b111 8
b11001 ,
b10110 *
b10110 7
b111111111111111111111111111111111111111111111110010 5
b10011 )
b10011 .
b10011 6
b10101010101010101010101010101010101010101010101010 1
b111 0
b10110 /
b101 >
b10011 =
1!
#11
b10 #
#15
0!
#20
0:
02
13
b10011 9
1;
b1110 ?
b1110 5
b101 )
b101 .
b101 6
b10011 >
b101 =
1!
#21
b11 #
#25
0!
#30
b1001 ?
b1001 5
b1110 9
b1110 >
1!
#31
b100 #
#35
0!
#40
b100 ?
b100 5
b1001 9
b1001 >
1!
#41
b101 #
#45
0!
#50
1:
12
1<
03
b101 ?
0;
b111111111111111111111111111111111111111111111111111 5
b100 9
b100 >
1!
#51
b110 #
#55
0!
#60
0:
02
13
b101 9
b1 ?
b1 5
1;
b100 )
b100 .
b100 6
b101 >
b100 =
1!
#61
b111 #
#65
0!
#70
1:
12
1<
b100 ?
03
b111111111111111111111111111111111111111111111111101 5
b1 9
0;
b1 >
1!
#71
b1000 #
#75
0!
#80
0:
02
13
b100 9
1;
b11 ?
b11 5
b1 )
b1 .
b1 6
b100 >
b1 =
1!
#81
b1001 #
#85
0!
#90
b10 ?
b10 5
b11 9
b11 >
1!
#91
b1010 #
#95
0!
#100
b1 ?
b1 5
b10 9
b10 >
1!
#101
b1011 #
#105
0!
#110
b0 ?
b0 5
b1 9
b1 >
1!
#111
b1100 #
#115
0!
#120
1:
02
1<
1(
14
1'
b111 ?
03
b111111111111111111111111111111111111111111111111111 5
b10110 9
0;
b0 >
1!
#121
b1101 #
#125
0!
#130
1<
12
1:
0(
04
0'
b10110 ?
b111 9
b1011 -
b1001 +
b1001 8
b11100 ,
b11001 *
b11001 7
b111111111111111111111111111111111111111111111110001 5
0;
b10110 )
b10110 .
b10110 6
b1 1
b1001 0
b11001 /
b111 >
b10110 =
1!
#131
b1110 #
#135
0!
#140
0:
02
13
b10110 9
1;
b1111 ?
b1111 5
b111 )
b111 .
b111 6
b10110 >
b111 =
1!
#141
b1111 #
#145
0!
#150
b1000 ?
b1000 5
b1111 9
b1111 >
1!
#151
b10000 #
#155
0!
#160
b1 ?
b1 5
b1000 9
b1000 >
1!
#161
b10001 #
#165
0!
#170
1:
12
1<
03
b111 ?
0;
b111111111111111111111111111111111111111111111111010 5
b1 9
b1 >
1!
#171
b10010 #
#175
0!
#180
0:
02
13
b111 9
1;
b110 ?
b110 5
b1 )
b1 .
b1 6
b111 >
b1 =
1!
#181
b10011 #
#185
0!
#190
b101 ?
b101 5
b110 9
b110 >
1!
#191
b10100 #
#195
0!
#200
b100 ?
b100 5
b101 9
b101 >
1!
#201
b10101 #
#205
0!
#210
b11 ?
b11 5
b100 9
b100 >
1!
#211
b10110 #
#215
0!
#220
b10 ?
b10 5
b11 9
b11 >
1!
#221
b10111 #
#225
0!
#230
b1 ?
b1 5
b10 9
b10 >
1!
#231
b11000 #
#235
0!
#240
b0 ?
b0 5
b1 9
b1 >
1!
#241
b11001 #
#245
0!
#250
1:
02
1<
1(
14
1'
b1001 ?
03
b111111111111111111111111111111111111111111111111111 5
b11001 9
0;
b0 >
1!
#251
b11010 #
#255
0!
#260
1<
12
1:
0(
04
0'
b1001 9
b11001 ?
b111111111111111111111111111111111111111111111110000 5
b11001 )
b11001 .
b11001 6
b1101 -
b1011 +
b1011 8
b11111 ,
b11100 *
b11100 7
b1001 >
b11001 =
b1011 0
b11100 /
1!
#261
b11011 #
#265
0!
#270
0:
02
13
b11001 9
b10000 ?
b10000 5
1;
b1001 )
b1001 .
b1001 6
b11001 >
b1001 =
1!
#271
b11100 #
#275
0!
#280
b111 ?
b111 5
b10000 9
b10000 >
1!
#281
b11101 #
#285
0!
#290
1:
12
1<
03
b1001 ?
0;
b111111111111111111111111111111111111111111111111110 5
b111 9
b111 >
1!
#291
b11110 #
#295
0!
#300
0:
02
13
b1001 9
1;
b10 ?
b10 5
b111 )
b111 .
b111 6
b1001 >
b111 =
1!
#301
b11111 #
#305
0!
#310
1:
12
1<
03
b111 ?
0;
b111111111111111111111111111111111111111111111111011 5
b10 9
b10 >
1!
#311
b100000 #
#315
0!
#320
0:
02
13
b111 9
1;
b101 ?
b101 5
b10 )
b10 .
b10 6
b111 >
b10 =
1!
#321
b100001 #
#325
0!
#330
b11 ?
b11 5
b101 9
b101 >
1!
#331
b100010 #
#335
0!
#340
b1 ?
b1 5
b11 9
b11 >
1!
#341
b100011 #
#345
0!
#350
1:
12
1<
b10 ?
03
b111111111111111111111111111111111111111111111111111 5
b1 9
0;
b1 >
1!
#351
b100100 #
#355
0!
#360
0:
02
13
b10 9
1;
b1 ?
b1 5
b1 )
b1 .
b1 6
b10 >
b1 =
1!
#361
b100101 #
#365
0!
#370
b0 ?
b0 5
b1 9
b1 >
1!
#371
b100110 #
#375
0!
#380
1:
02
1<
1(
14
1'
b1011 ?
03
b111111111111111111111111111111111111111111111111111 5
b11100 9
0;
b0 >
1!
#381
b100111 #
#385
0!
#390
1<
12
1:
0(
04
0'
b11100 ?
b1011 9
b1111 -
b1101 +
b1101 8
b100010 ,
b11111 *
b11111 7
b111111111111111111111111111111111111111111111101111 5
0;
b11100 )
b11100 .
b11100 6
b1101 0
b11111 /
b1011 >
b11100 =
1!
#391
b101000 #
#395
0!
#400
0:
02
13
b11100 9
1;
b10001 ?
b10001 5
b1011 )
b1011 .
b1011 6
b11100 >
b1011 =
1!
#401
b101001 #
#405
0!
#410
b110 ?
b110 5
b10001 9
b10001 >
1!
#411
b101010 #
#415
0!
#420
1:
12
1<
03
b1011 ?
0;
b111111111111111111111111111111111111111111111111011 5
b110 9
b110 >
1!
#421
b101011 #
#425
0!
#430
0:
02
13
b1011 9
1;
b101 ?
b101 5
b110 )
b110 .
b110 6
b1011 >
b110 =
1!
#431
b101100 #
#435
0!
#440
1:
12
1<
03
b110 ?
0;
b111111111111111111111111111111111111111111111111111 5
b101 9
b101 >
1!
#441
b101101 #
#445
0!
#450
0:
02
13
b110 9
1;
b1 ?
b1 5
b101 )
b101 .
b101 6
b110 >
b101 =
1!
#451
b101110 #
#455
0!
#460
1:
12
1<
03
b101 ?
0;
b111111111111111111111111111111111111111111111111100 5
b1 9
b1 >
1!
#461
b101111 #
#465
0!
#470
0:
02
13
b101 9
b100 ?
b100 5
1;
b1 )
b1 .
b1 6
b101 >
b1 =
1!
#471
b110000 #
#475
0!
#480
b11 ?
b11 5
b100 9
b100 >
1!
#481
b110001 #
#485
0!
#490
b10 ?
b10 5
b11 9
b11 >
1!
#491
b110010 #
#495
0!
#500
b1 ?
b1 5
b10 9
b10 >
1!
#501
b110011 #
#505
0!
#510
b0 ?
b0 5
b1 9
b1 >
1!
#511
b110100 #
#515
0!
#520
1:
02
1<
1(
14
1'
b1101 ?
03
b111111111111111111111111111111111111111111111111111 5
b11111 9
0;
b0 >
1!
#521
b110101 #
#525
0!
#530
1<
12
1:
0(
04
0'
b1101 9
b11111 ?
b10001 -
b1111 +
b1111 8
b100101 ,
b100010 *
b100010 7
b111111111111111111111111111111111111111111111101110 5
b11111 )
b11111 .
b11111 6
b1111 0
b100010 /
b1101 >
b11111 =
1!
#531
b110110 #
#535
0!
#540
0:
02
13
b11111 9
1;
b10010 ?
b10010 5
b1101 )
b1101 .
b1101 6
b11111 >
b1101 =
1!
#541
b110111 #
#545
0!
#550
b101 ?
b101 5
b10010 9
b10010 >
1!
#551
b111000 #
#555
0!
#560
1:
12
1<
03
b1101 ?
0;
b111111111111111111111111111111111111111111111111000 5
b101 9
b101 >
1!
#561
b111001 #
#565
0!
#570
0:
02
13
b1101 9
b1000 ?
b1000 5
1;
b101 )
b101 .
b101 6
b1101 >
b101 =
1!
#571
b111010 #
#575
0!
#580
b11 ?
b11 5
b1000 9
b1000 >
1!
#581
b111011 #
#585
0!
#590
1:
12
1<
03
b101 ?
0;
b111111111111111111111111111111111111111111111111110 5
b11 9
b11 >
1!
#591
b111100 #
#595
0!
#600
0:
02
13
b101 9
1;
b10 ?
b10 5
b11 )
b11 .
b11 6
b101 >
b11 =
1!
#601
b111101 #
#605
0!
#610
1:
12
1<
03
b11 ?
0;
b111111111111111111111111111111111111111111111111111 5
b10 9
b10 >
1!
#611
b111110 #
#615
0!
#620
0:
02
13
b11 9
b1 ?
b1 5
1;
b10 )
b10 .
b10 6
b11 >
b10 =
1!
#621
b111111 #
#625
0!
#630
1:
12
1<
b10 ?
03
b111111111111111111111111111111111111111111111111111 5
b1 9
0;
b1 >
1!
#631
b1000000 #
#635
0!
#640
0:
02
13
b10 9
1;
b1 ?
b1 5
b1 )
b1 .
b1 6
b10 >
b1 =
1!
#641
b1000001 #
#645
0!
#650
b0 ?
b0 5
b1 9
b1 >
1!
#651
b1000010 #
#655
0!
#660
1:
02
1<
1(
14
1'
b1111 ?
03
b111111111111111111111111111111111111111111111111111 5
b100010 9
0;
b0 >
1!
#661
b1000011 #
#665
0!
#670
1<
12
1:
0(
04
0'
b100010 ?
b1111 9
b10011 -
b10001 +
b10001 8
b101000 ,
b100101 *
b100101 7
b111111111111111111111111111111111111111111111101101 5
0;
b100010 )
b100010 .
b100010 6
b10001 0
b100101 /
b1111 >
b100010 =
1!
#671
b1000100 #
#675
0!
#680
0:
02
13
b100010 9
1;
b10011 ?
b10011 5
b1111 )
b1111 .
b1111 6
b100010 >
b1111 =
1!
#681
b1000101 #
#685
0!
#690
b100 ?
b100 5
b10011 9
b10011 >
1!
#691
b1000110 #
#695
0!
#700
1:
12
1<
03
b1111 ?
0;
b111111111111111111111111111111111111111111111110101 5
b100 9
b100 >
1!
#701
b1000111 #
#705
0!
#710
0:
02
13
b1111 9
1;
b1011 ?
b1011 5
b100 )
b100 .
b100 6
b1111 >
b100 =
1!
#711
b1001000 #
#715
0!
#720
b111 ?
b111 5
b1011 9
b1011 >
1!
#721
b1001001 #
#725
0!
#730
b11 ?
b11 5
b111 9
b111 >
1!
#731
b1001010 #
#735
0!
#740
1:
12
1<
b100 ?
03
b111111111111111111111111111111111111111111111111111 5
b11 9
0;
b11 >
1!
#741
b1001011 #
#745
0!
#750
0:
02
13
b100 9
1;
b1 ?
b1 5
b11 )
b11 .
b11 6
b100 >
b11 =
1!
#751
b1001100 #
#755
0!
#760
1:
12
1<
03
b11 ?
0;
b111111111111111111111111111111111111111111111111110 5
b1 9
b1 >
1!
#761
b1001101 #
#765
0!
#770
0:
02
13
b11 9
b10 ?
b10 5
1;
b1 )
b1 .
b1 6
b11 >
b1 =
1!
#771
b1001110 #
#775
0!
#780
b1 ?
b1 5
b10 9
b10 >
1!
#781
b1001111 #
#785
0!
#790
b0 ?
b0 5
b1 9
b1 >
1!
#791
b1010000 #
#795
0!
#800
1:
02
1<
1(
14
1'
b10001 ?
03
b111111111111111111111111111111111111111111111111111 5
b100101 9
0;
b0 >
1!
#801
b1010001 #
#805
0!
#810
1<
12
1:
0(
04
0'
b10001 9
b100101 ?
b10101 -
b10011 +
b10011 8
b101011 ,
b101000 *
b101000 7
b111111111111111111111111111111111111111111111101100 5
b100101 )
b100101 .
b100101 6
b10011 0
b101000 /
b10001 >
b100101 =
1!
#811
b1010010 #
#815
0!
#820
0:
02
13
b100101 9
1;
b10100 ?
b10100 5
b10001 )
b10001 .
b10001 6
b100101 >
b10001 =
1!
#821
b1010011 #
#825
0!
#830
b11 ?
b11 5
b10100 9
b10100 >
1!
#831
b1010100 #
#835
0!
#840
1:
12
1<
03
b10001 ?
0;
b111111111111111111111111111111111111111111111110010 5
b11 9
b11 >
1!
#841
b1010101 #
#845
0!
#850
0:
02
13
b10001 9
1;
b1110 ?
b1110 5
b11 )
b11 .
b11 6
b10001 >
b11 =
1!
#851
b1010110 #
#855
0!
#860
b1011 ?
b1011 5
b1110 9
b1110 >
1!
#861
b1010111 #
#865
0!
#870
b1000 ?
b1000 5
b1011 9
b1011 >
1!
#871
b1011000 #
#875
0!
#880
b101 ?
b101 5
b1000 9
b1000 >
1!
#881
b1011001 #
#885
0!
#890
b10 ?
b10 5
b101 9
b101 >
1!
#891
b1011010 #
#895
0!
#900
1:
12
1<
03
b11 ?
0;
b111111111111111111111111111111111111111111111111111 5
b10 9
b10 >
1!
#901
b1011011 #
#905
0!
#910
0:
02
13
b11 9
b1 ?
b1 5
1;
b10 )
b10 .
b10 6
b11 >
b10 =
1!
#911
b1011100 #
#915
0!
#920
1:
12
1<
b10 ?
03
b111111111111111111111111111111111111111111111111111 5
b1 9
0;
b1 >
1!
#921
b1011101 #
#925
0!
#930
0:
02
13
b10 9
1;
b1 ?
b1 5
b1 )
b1 .
b1 6
b10 >
b1 =
1!
#931
b1011110 #
#935
0!
#940
b0 ?
b0 5
b1 9
b1 >
1!
#941
b1011111 #
#945
0!
#950
1:
02
1<
1(
14
1'
b10011 ?
03
b111111111111111111111111111111111111111111111111111 5
b101000 9
0;
b0 >
1!
#951
b1100000 #
#955
0!
#960
1<
12
1:
0(
04
0'
b10011 9
b101000 ?
b111111111111111111111111111111111111111111111101011 5
0;
b101000 )
b101000 .
b101000 6
b10111 -
b10101 +
b10101 8
b101110 ,
b101011 *
b101011 7
b10011 >
b101000 =
b10101 0
b101011 /
1!
#961
b1100001 #
#965
0!
#970
0:
02
13
b101000 9
1;
b10101 ?
b10101 5
b10011 )
b10011 .
b10011 6
b101000 >
b10011 =
1!
#971
b1100010 #
#975
0!
#980
b10 ?
b10 5
b10101 9
b10101 >
1!
#981
b1100011 #
#985
0!
#990
1:
12
1<
03
b10011 ?
0;
b111111111111111111111111111111111111111111111101111 5
b10 9
b10 >
1!
#991
b1100100 #
#995
0!
#1000
0:
02
13
b10011 9
1;
b10001 ?
b10001 5
b10 )
b10 .
b10 6
b10011 >
b10 =
1!
#1001
b1100101 #
#1005
0!
#1010
b1111 ?
b1111 5
b10001 9
b10001 >
1!
#1011
b1100110 #
#1015
0!
#1020
b1101 ?
b1101 5
b1111 9
b1111 >
1!
#1021
b1100111 #
#1025
0!
#1030
b1011 ?
b1011 5
b1101 9
b1101 >
1!
#1031
b1101000 #
#1035
0!
#1040
b1001 ?
b1001 5
b1011 9
b1011 >
1!
#1041
b1101001 #
#1045
0!
#1050
b111 ?
b111 5
b1001 9
b1001 >
1!
#1051
b1101010 #
#1055
0!
#1060
b101 ?
b101 5
b111 9
b111 >
1!
#1061
b1101011 #
#1065
0!
#1070
b11 ?
b11 5
b101 9
b101 >
1!
#1071
b1101100 #
#1075
0!
#1080
b1 ?
b1 5
b11 9
b11 >
1!
#1081
b1101101 #
#1085
0!
#1090
1:
12
1<
b10 ?
03
b111111111111111111111111111111111111111111111111111 5
b1 9
0;
b1 >
1!
#1091
b1101110 #
#1095
0!
#1100
0:
02
13
b10 9
1;
b1 ?
b1 5
b1 )
b1 .
b1 6
b10 >
b1 =
1!
#1101
b1101111 #
#1105
0!
#1110
b0 ?
b0 5
b1 9
b1 >
1!
#1111
b1110000 #
#1115
0!
#1120
1:
02
1<
1(
14
1'
b10101 ?
03
b111111111111111111111111111111111111111111111111111 5
b101011 9
0;
b0 >
1!
#1121
b1110001 #
#1125
0!
#1130
1<
12
1:
0(
04
0'
b10101 9
b101011 ?
b11001 -
b10111 +
b10111 8
b110001 ,
b101110 *
b101110 7
b111111111111111111111111111111111111111111111101010 5
b101011 )
b101011 .
b101011 6
b10111 0
b101110 /
b10101 >
b101011 =
1!
#1131
b1110010 #
#1135
0!
#1140
0:
02
13
b101011 9
1;
b10110 ?
b10110 5
b10101 )
b10101 .
b10101 6
b101011 >
b10101 =
1!
#1141
b1110011 #
#1145
0!
#1150
b1 ?
b1 5
b10110 9
b10110 >
1!
#1151
b1110100 #
#1155
0!
#1160
1:
12
1<
03
b10101 ?
0;
b111111111111111111111111111111111111111111111101100 5
b1 9
b1 >
1!
#1161
b1110101 #
#1165
0!
#1170
0:
02
13
b10101 9
1;
b10100 ?
b10100 5
b1 )
b1 .
b1 6
b10101 >
b1 =
1!
#1171
b1110110 #
#1175
0!
#1180
b10011 ?
b10011 5
b10100 9
b10100 >
1!
#1181
b1110111 #
#1185
0!
#1190
b10010 ?
b10010 5
b10011 9
b10011 >
1!
#1191
b1111000 #
#1195
0!
#1200
b10001 ?
b10001 5
b10010 9
b10010 >
1!
#1201
b1111001 #
#1205
0!
#1210
b10000 ?
b10000 5
b10001 9
b10001 >
1!
#1211
b1111010 #
#1215
0!
#1220
b1111 ?
b1111 5
b10000 9
b10000 >
1!
#1221
b1111011 #
#1225
0!
#1230
b1110 ?
b1110 5
b1111 9
b1111 >
1!
#1231
b1111100 #
#1235
0!
#1240
b1101 ?
b1101 5
b1110 9
b1110 >
1!
#1241
b1111101 #
#1245
0!
#1250
b1100 ?
b1100 5
b1101 9
b1101 >
1!
#1251
b1111110 #
#1255
0!
#1260
b1011 ?
b1011 5
b1100 9
b1100 >
1!
#1261
b1111111 #
#1265
0!
#1270
b1010 ?
b1010 5
b1011 9
b1011 >
1!
#1271
b10000000 #
#1275
0!
#1280
b1001 ?
b1001 5
b1010 9
b1010 >
1!
#1281
b10000001 #
#1285
0!
#1290
b1000 ?
b1000 5
b1001 9
b1001 >
1!
#1291
b10000010 #
#1295
0!
#1300
b111 ?
b111 5
b1000 9
b1000 >
1!
#1301
b10000011 #
#1305
0!
#1310
b110 ?
b110 5
b111 9
b111 >
1!
#1311
b10000100 #
#1315
0!
#1320
b101 ?
b101 5
b110 9
b110 >
1!
#1321
b10000101 #
#1325
0!
#1330
b100 ?
b100 5
b101 9
b101 >
1!
#1331
b10000110 #
#1335
0!
#1340
b11 ?
b11 5
b100 9
b100 >
1!
#1341
b10000111 #
#1345
0!
#1350
b10 ?
b10 5
b11 9
b11 >
1!
#1351
b10001000 #
#1355
0!
#1360
b1 ?
b1 5
b10 9
b10 >
1!
#1361
b10001001 #
#1365
0!
#1370
b0 ?
b0 5
b1 9
b1 >
1!
#1371
b10001010 #
#1375
0!
#1380
1:
02
1<
1(
14
1'
b10111 ?
03
b111111111111111111111111111111111111111111111111111 5
b101110 9
0;
b0 >
1!
#1381
b10001011 #
#1385
0!
#1390
1<
12
1:
0(
04
0'
b101110 ?
b10111 9
b11011 -
b11001 +
b11001 8
b110100 ,
b110001 *
b110001 7
b111111111111111111111111111111111111111111111101001 5
0;
b101110 )
b101110 .
b101110 6
b11001 0
b110001 /
b10111 >
b101110 =
1!
#1391
b10001100 #
#1395
0!
#1400
0:
02
13
b101110 9
1;
b10111 ?
b10111 5
b10111 )
b10111 .
b10111 6
b101110 >
b10111 =
1!
#1401
b10001101 #
#1405
0!
#1410
b0 ?
b0 5
b10111 9
b10111 >
1!
#1411
b10001110 #
#1415
0!
#1420
1:
1(
14
1'
02
1<
b11001 ?
03
b111111111111111111111111111111111111111111111101001 5
b110001 9
0;
b0 >
1!
#1421
b10001111 #
#1425
0!
#1430
1<
12
1:
0(
04
0'
b11001 9
b110001 ?
b11101 -
b11011 +
b11011 8
b110111 ,
b110100 *
b110100 7
b111111111111111111111111111111111111111111111101000 5
b110001 )
b110001 .
b110001 6
b10111 1
b11011 0
b110100 /
b11001 >
b110001 =
1!
#1431
b10010000 #
#1435
0!
#1440
0:
02
13
b110001 9
1;
b11000 ?
b11000 5
b11001 )
b11001 .
b11001 6
b110001 >
b11001 =
1!
#1441
b10010001 #
#1445
0!
#1450
1:
12
1<
03
b11001 ?
0;
b111111111111111111111111111111111111111111111111111 5
b11000 9
b11000 >
1!
#1451
b10010010 #
#1455
0!
#1460
0:
02
13
b11001 9
b1 ?
b1 5
1;
b11000 )
b11000 .
b11000 6
b11001 >
b11000 =
1!
#1461
b10010011 #
#1465
0!
#1470
1:
12
1<
b11000 ?
03
b111111111111111111111111111111111111111111111101001 5
b1 9
0;
b1 >
1!
#1471
b10010100 #
#1475
0!
#1480
0:
02
13
b11000 9
1;
b10111 ?
b10111 5
b1 )
b1 .
b1 6
b11000 >
b1 =
1!
#1481
b10010101 #
#1485
0!
#1490
b10110 ?
b10110 5
b10111 9
b10111 >
1!
#1491
b10010110 #
#1495
0!
#1500
b10101 ?
b10101 5
b10110 9
b10110 >
1!
#1501
b10010111 #
#1505
0!
#1510
b10100 ?
b10100 5
b10101 9
b10101 >
1!
#1511
b10011000 #
#1515
0!
#1520
b10011 ?
b10011 5
b10100 9
b10100 >
1!
#1521
b10011001 #
#1525
0!
#1530
b10010 ?
b10010 5
b10011 9
b10011 >
1!
#1531
b10011010 #
#1535
0!
#1540
b10001 ?
b10001 5
b10010 9
b10010 >
1!
#1541
b10011011 #
#1545
0!
#1550
b10000 ?
b10000 5
b10001 9
b10001 >
1!
#1551
b10011100 #
#1555
0!
#1560
b1111 ?
b1111 5
b10000 9
b10000 >
1!
#1561
b10011101 #
#1565
0!
#1570
b1110 ?
b1110 5
b1111 9
b1111 >
1!
#1571
b10011110 #
#1575
0!
#1580
b1101 ?
b1101 5
b1110 9
b1110 >
1!
#1581
b10011111 #
#1585
0!
#1590
b1100 ?
b1100 5
b1101 9
b1101 >
1!
#1591
b10100000 #
#1595
0!
#1600
b1011 ?
b1011 5
b1100 9
b1100 >
1!
#1601
b10100001 #
#1605
0!
#1610
b1010 ?
b1010 5
b1011 9
b1011 >
1!
#1611
b10100010 #
#1615
0!
#1620
b1001 ?
b1001 5
b1010 9
b1010 >
1!
#1621
b10100011 #
#1625
0!
#1630
b1000 ?
b1000 5
b1001 9
b1001 >
1!
#1631
b10100100 #
#1635
0!
#1640
b111 ?
b111 5
b1000 9
b1000 >
1!
#1641
b10100101 #
#1645
0!
#1650
b110 ?
b110 5
b111 9
b111 >
1!
#1651
b10100110 #
#1655
0!
#1660
b101 ?
b101 5
b110 9
b110 >
1!
#1661
b10100111 #
#1665
0!
#1670
b100 ?
b100 5
b101 9
b101 >
1!
#1671
b10101000 #
#1675
0!
#1680
b11 ?
b11 5
b100 9
b100 >
1!
#1681
b10101001 #
#1685
0!
#1690
b10 ?
b10 5
b11 9
b11 >
1!
#1691
b10101010 #
#1695
0!
#1700
b1 ?
b1 5
b10 9
b10 >
1!
#1701
b10101011 #
#1705
0!
#1710
b0 ?
b0 5
b1 9
b1 >
1!
#1711
b10101100 #
#1715
0!
#1720
1:
02
1<
1(
14
1'
b11011 ?
03
b111111111111111111111111111111111111111111111111111 5
b110100 9
0;
b0 >
1!
#1721
b10101101 #
#1725
0!
#1730
1<
12
1:
0(
04
0'
b110100 ?
b11011 9
b11111 -
b11101 +
b11101 8
b111010 ,
b110111 *
b110111 7
b111111111111111111111111111111111111111111111100111 5
0;
b110100 )
b110100 .
b110100 6
b1 1
b11101 0
b110111 /
b11011 >
b110100 =
1!
#1731
b10101110 #
#1735
0!
#1740
0:
02
13
b110100 9
1;
b11001 ?
b11001 5
b11011 )
b11011 .
b11011 6
b110100 >
b11011 =
1!
#1741
b10101111 #
#1745
0!
#1750
1:
12
1<
03
b11011 ?
0;
b111111111111111111111111111111111111111111111111110 5
b11001 9
b11001 >
1!
#1751
b10110000 #
#1755
0!
#1760
0:
02
13
b11011 9
b10 ?
b10 5
1;
b11001 )
b11001 .
b11001 6
b11011 >
b11001 =
1!
#1761
b10110001 #
#1765
0!
#1770
1:
12
1<
03
b11001 ?
0;
b111111111111111111111111111111111111111111111101001 5
b10 9
b10 >
1!
#1771
b10110010 #
#1775
0!
#1780
0:
02
13
b11001 9
1;
b10111 ?
b10111 5
b10 )
b10 .
b10 6
b11001 >
b10 =
1!
#1781
b10110011 #
#1785
0!
#1790
b10101 ?
b10101 5
b10111 9
b10111 >
1!
#1791
b10110100 #
#1795
0!
#1800
b10011 ?
b10011 5
b10101 9
b10101 >
1!
#1801
b10110101 #
#1805
0!
#1810
b10001 ?
b10001 5
b10011 9
b10011 >
1!
#1811
b10110110 #
#1815
0!
#1820
b1111 ?
b1111 5
b10001 9
b10001 >
1!
#1821
b10110111 #
#1825
0!
#1830
b1101 ?
b1101 5
b1111 9
b1111 >
1!
#1831
b10111000 #
#1835
0!
#1840
b1011 ?
b1011 5
b1101 9
b1101 >
1!
#1841
b10111001 #
#1845
0!
#1850
b1001 ?
b1001 5
b1011 9
b1011 >
1!
#1851
b10111010 #
#1855
0!
#1860
b111 ?
b111 5
b1001 9
b1001 >
1!
#1861
b10111011 #
#1865
0!
#1870
b101 ?
b101 5
b111 9
b111 >
1!
#1871
b10111100 #
#1875
0!
#1880
b11 ?
b11 5
b101 9
b101 >
1!
#1881
b10111101 #
#1885
0!
#1890
b1 ?
b1 5
b11 9
b11 >
1!
#1891
b10111110 #
#1895
0!
#1900
1:
12
1<
b10 ?
03
b111111111111111111111111111111111111111111111111111 5
b1 9
0;
b1 >
1!
#1901
b10111111 #
#1905
0!
#1910
0:
02
13
b10 9
1;
b1 ?
b1 5
b1 )
b1 .
b1 6
b10 >
b1 =
1!
#1911
b11000000 #
#1915
0!
#1920
b0 ?
b0 5
b1 9
b1 >
1!
#1921
b11000001 #
#1925
0!
#1930
1:
02
1<
1(
14
1'
b11101 ?
03
b111111111111111111111111111111111111111111111111111 5
b110111 9
0;
b0 >
1!
#1931
b11000010 #
#1935
0!
#1940
1<
12
1:
0(
04
0'
b11101 9
b110111 ?
b111111111111111111111111111111111111111111111100110 5
b110111 )
b110111 .
b110111 6
b100001 -
b11111 +
b11111 8
b111101 ,
b111010 *
b111010 7
b11101 >
b110111 =
b11111 0
b111010 /
1!
#1941
b11000011 #
#1945
0!
#1950
0:
02
13
b110111 9
1;
b11010 ?
b11010 5
b11101 )
b11101 .
b11101 6
b110111 >
b11101 =
1!
#1951
b11000100 #
#1955
0!
#1960
1:
12
1<
03
b11101 ?
0;
b111111111111111111111111111111111111111111111111101 5
b11010 9
b11010 >
1!
#1961
b11000101 #
#1965
0!
#1970
0:
02
13
b11101 9
1;
b11 ?
b11 5
b11010 )
b11010 .
b11010 6
b11101 >
b11010 =
1!
#1971
b11000110 #
#1975
0!
#1980
1:
12
1<
03
b11010 ?
0;
b111111111111111111111111111111111111111111111101001 5
b11 9
b11 >
1!
#1981
b11000111 #
#1985
0!
#1990
0:
02
13
b11010 9
1;
b10111 ?
b10111 5
b11 )
b11 .
b11 6
b11010 >
b11 =
1!
#1991
b11001000 #
#1995
0!
#2000
b10100 ?
b10100 5
b10111 9
b10111 >
1!
#2001
b11001001 #
#2005
0!
