testsuite/bsc.vcdcheck/gcd_bsim.vcd
$date
	Fri May  9 09:54:14 2008
$end
$version
	Bluespec VCD dumper 2.1
$end
$timescale
	1 us
$end
$scope module main $end
$scope module top $end
$var reg 1 ! CLK $end
$var reg 1 " CAN_FIRE_RL_exit $end
$var reg 1 # CAN_FIRE_RL_rule1SendInput $end
$var reg 1 $ CAN_FIRE_RL_rule2GetResult $end
$var reg 1 % RST_N $end
$var reg 1 & WILL_FIRE_RL_exit $end
$var reg 1 ' WILL_FIRE_RL_rule1SendInput $end
$var reg 1 ( WILL_FIRE_RL_rule2GetResult $end
$var reg 51 ) b__h403 $end
$var reg 51 * b__h517 $end
$var reg 51 . the_count1 $end
$var reg 51 / the_count2 $end
$var reg 51 0 the_tbresult $end
$scope module gcd $end
$var reg 1 1 CAN_FIRE_RL_flip $end
$var reg 1 2 CAN_FIRE_RL_sub $end
$var reg 1 3 CAN_FIRE_start $end
$var reg 1 4 NOT_the_y_EQ_0___d5 $end
$var reg 1 5 RST_N $end
$var reg 1 6 WILL_FIRE_RL_flip $end
$var reg 1 7 WILL_FIRE_RL_sub $end
$var reg 1 8 WILL_FIRE_start $end
$var reg 51 9 b__h225 $end
$var reg 51 : b__h229 $end
$var reg 1 ; the_x_ULE_the_y___d3 $end
$var reg 1 < the_y_EQ_0___d10 $end
$var reg 1 = EN_start $end
$var reg 1 > RDY_result $end
$var reg 1 ? RDY_start $end
$var reg 51 @ result $end
$var reg 51 A start_num1 $end
$var reg 51 B start_num2 $end
$var reg 51 E the_x $end
$var reg 51 F the_y $end
$upscope $end
$upscope $end
$upscope $end
$enddefinitions $end
1!
1"
0#
0$
0%
1&
0'
0(
b10101010101010101010101010101010101010101010101010 )
b0 *
b10011 .
b101 /
b0 0
01
12
03
14
05
06
17
08
b10101010101010101010101010101010101010101010101010 9
b10101010101010101010101010101010101010101010101010 :
1;
0<
0=
0>
0?
b0 @
b0 A
b0 B
b10101010101010101010101010101010101010101010101010 E
b0 F
0"
1#
1$
0&
1'
1(
b10011 )
b101 *
02
13
04
07
18
b0 :
0;
1<
1=
1>
1?
b10101010101010101010101010101010101010101010101010 @
b10011 A
b101 B
#5
0!
1%
15
#10
0#
0$
0'
0(
b10110 )
11
03
14
16
08
b10011 9
b101 :
0<
0=
0>
0?
1!
b10110 .
b111 /
b10101010101010101010101010101010101010101010101010 0
b10011 E
b101 F
#15
0!
#20
01
12
06
17
b101 9
b10011 :
1;
1!
b101 E
b10011 F
#25
0!
#30
b1110 :
1!
b1110 F
#35
0!
#40
b1001 :
1!
b1001 F
#45
0!
#50
11
02
16
07
b100 :
0;
1!
b100 F
#55
0!
#60
01
12
06
17
b100 9
b101 :
1;
1!
b100 E
b101 F
#65
0!
#70
11
02
16
07
b1 :
0;
1!
b1 F
#75
0!
#80
01
12
06
17
b1 9
b100 :
1;
1!
b1 E
b100 F
#85
0!
#90
b11 :
1!
b11 F
#95
0!
#100
b10 :
1!
b10 F
#105
0!
#110
b1 :
1!
b1 F
#115
0!
#120
1#
1$
1'
1(
b111 *
02
13
04
07
18
b0 :
0;
1<
1=
1>
1?
b1 @
b10110 A
b111 B
1!
b0 F
#125
0!
#130
0#
0$
0'
0(
b11001 )
11
03
14
16
08
b10110 9
b111 :
0<
0=
0>
0?
1!
b11001 .
b1001 /
b1 0
b10110 E
b111 F
#135
0!
#140
01
12
06
17
b111 9
b10110 :
1;
1!
b111 E
b10110 F
#145
0!
#150
b1111 :
1!
b1111 F
#155
0!
#160
b1000 :
1!
b1000 F
#165
0!
#170
11
02
16
07
b1 :
0;
1!
b1 F
#175
0!
#180
01
12
06
17
b1 9
b111 :
1;
1!
b1 E
b111 F
#185
0!
#190
b110 :
1!
b110 F
#195
0!
#200
b101 :
1!
b101 F
#205
0!
#210
b100 :
1!
b100 F
#215
0!
#220
b11 :
1!
b11 F
#225
0!
#230
b10 :
1!
b10 F
#235
0!
#240
b1 :
1!
b1 F
#245
0!
#250
1#
1$
1'
1(
b1001 *
02
13
04
07
18
b0 :
0;
1<
1=
1>
1?
b11001 A
b1001 B
1!
b0 F
#255
0!
#260
0#
0$
0'
0(
b11100 )
11
03
14
16
08
b11001 9
b1001 :
0<
0=
0>
0?
1!
b11100 .
b1011 /
b11001 E
b1001 F
#265
0!
#270
01
12
06
17
b1001 9
b11001 :
1;
1!
b1001 E
b11001 F
#275
0!
#280
b10000 :
1!
b10000 F
#285
0!
#290
11
02
16
07
b111 :
0;
1!
b111 F
#295
0!
#300
01
12
06
17
b111 9
b1001 :
1;
1!
b111 E
b1001 F
#305
0!
#310
11
02
16
07
b10 :
0;
1!
b10 F
#315
0!
#320
01
12
06
17
b10 9
b111 :
1;
1!
b10 E
b111 F
#325
0!
#330
b101 :
1!
b101 F
#335
0!
#340
b11 :
1!
b11 F
#345
0!
#350
11
02
16
07
b1 :
0;
1!
b1 F
#355
0!
#360
01
12
06
17
b1 9
b10 :
1;
1!
b1 E
b10 F
#365
0!
#370
b1 :
1!
b1 F
#375
0!
#380
1#
1$
1'
1(
b1011 *
02
13
04
07
18
b0 :
0;
1<
1=
1>
1?
b11100 A
b1011 B
1!
b0 F
#385
0!
#390
0#
0$
0'
0(
b11111 )
11
03
14
16
08
b11100 9
b1011 :
0<
0=
0>
0?
1!
b11111 .
b1101 /
b11100 E
b1011 F
#395
0!
#400
01
12
06
17
b1011 9
b11100 :
1;
1!
b1011 E
b11100 F
#405
0!
#410
b10001 :
1!
b10001 F
#415
0!
#420
11
02
16
07
b110 :
0;
1!
b110 F
#425
0!
#430
01
12
06
17
b110 9
b1011 :
1;
1!
b110 E
b1011 F
#435
0!
#440
11
02
16
07
b101 :
0;
1!
b101 F
#445
0!
#450
01
12
06
17
b101 9
b110 :
1;
1!
b101 E
b110 F
#455
0!
#460
11
02
16
07
b1 :
0;
1!
b1 F
#465
0!
#470
01
12
06
17
b1 9
b101 :
1;
1!
b1 E
b101 F
#475
0!
#480
b100 :
1!
b100 F
#485
0!
#490
b11 :
1!
b11 F
#495
0!
#500
b10 :
1!
b10 F
#505
0!
#510
b1 :
1!
b1 F
#515
0!
#520
1#
1$
1'
1(
b1101 *
02
13
04
07
18
b0 :
0;
1<
1=
1>
1?
b11111 A
b1101 B
1!
b0 F
#525
0!
#530
0#
0$
0'
0(
b100010 )
11
03
14
16
08
b11111 9
b1101 :
0<
0=
0>
0?
1!
b100010 .
b1111 /
b11111 E
b1101 F
#535
0!
#540
01
12
06
17
b1101 9
b11111 :
1;
1!
b1101 E
b11111 F
#545
0!
#550
b10010 :
1!
b10010 F
#555
0!
#560
11
02
16
07
b101 :
0;
1!
b101 F
#565
0!
#570
01
12
06
17
b101 9
b1101 :
1;
1!
b101 E
b1101 F
#575
0!
#580
b1000 :
1!
b1000 F
#585
0!
#590
11
02
16
07
b11 :
0;
1!
b11 F
#595
0!
#600
01
12
06
17
b11 9
b101 :
1;
1!
b11 E
b101 F
#605
0!
#610
11
02
16
07
b10 :
0;
1!
b10 F
#615
0!
#620
01
12
06
17
b10 9
b11 :
1;
1!
b10 E
b11 F
#625
0!
#630
11
02
16
07
b1 :
0;
1!
b1 F
#635
0!
#640
01
12
06
17
b1 9
b10 :
1;
1!
b1 E
b10 F
#645
0!
#650
b1 :
1!
b1 F
#655
0!
#660
1#
1$
1'
1(
b1111 *
02
13
04
07
18
b0 :
0;
1<
1=
1>
1?
b100010 A
b1111 B
1!
b0 F
#665
0!
#670
0#
0$
0'
0(
b100101 )
11
03
14
16
08
b100010 9
b1111 :
0<
0=
0>
0?
1!
b100101 .
b10001 /
b100010 E
b1111 F
#675
0!
#680
01
12
06
17
b1111 9
b100010 :
1;
1!
b1111 E
b100010 F
#685
0!
#690
b10011 :
1!
b10011 F
#695
0!
#700
11
02
16
07
b100 :
0;
1!
b100 F
#705
0!
#710
01
12
06
17
b100 9
b1111 :
1;
1!
b100 E
b1111 F
#715
0!
#720
b1011 :
1!
b1011 F
#725
0!
#730
b111 :
1!
b111 F
#735
0!
#740
11
02
16
07
b11 :
0;
1!
b11 F
#745
0!
#750
01
12
06
17
b11 9
b100 :
1;
1!
b11 E
b100 F
#755
0!
#760
11
02
16
07
b1 :
0;
1!
b1 F
#765
0!
#770
01
12
06
17
b1 9
b11 :
1;
1!
b1 E
b11 F
#775
0!
#780
b10 :
1!
b10 F
#785
0!
#790
b1 :
1!
b1 F
#795
0!
#800
1#
1$
1'
1(
b10001 *
02
13
04
07
18
b0 :
0;
1<
1=
1>
1?
b100101 A
b10001 B
1!
b0 F
#805
0!
#810
0#
0$
0'
0(
b101000 )
11
03
14
16
08
b100101 9
b10001 :
0<
0=
0>
0?
1!
b101000 .
b10011 /
b100101 E
b10001 F
#815
0!
#820
01
12
06
17
b10001 9
b100101 :
1;
1!
b10001 E
b100101 F
#825
0!
#830
b10100 :
1!
b10100 F
#835
0!
#840
11
02
16
07
b11 :
0;
1!
b11 F
#845
0!
#850
01
12
06
17
b11 9
b10001 :
1;
1!
b11 E
b10001 F
#855
0!
#860
b1110 :
1!
b1110 F
#865
0!
#870
b1011 :
1!
b1011 F
#875
0!
#880
b1000 :
1!
b1000 F
#885
0!
#890
b101 :
1!
b101 F
#895
0!
#900
11
02
16
07
b10 :
0;
1!
b10 F
#905
0!
#910
01
12
06
17
b10 9
b11 :
1;
1!
b10 E
b11 F
#915
0!
#920
11
02
16
07
b1 :
0;
1!
b1 F
#925
0!
#930
01
12
06
17
b1 9
b10 :
1;
1!
b1 E
b10 F
#935
0!
#940
b1 :
1!
b1 F
#945
0!
#950
1#
1$
1'
1(
b10011 *
02
13
04
07
18
b0 :
0;
1<
1=
1>
1?
b101000 A
b10011 B
1!
b0 F
#955
0!
#960
0#
0$
0'
0(
b101011 )
11
03
14
16
08
b101000 9
b10011 :
0<
0=
0>
0?
1!
b101011 .
b10101 /
b101000 E
b10011 F
#965
0!
#970
01
12
06
17
b10011 9
b101000 :
1;
1!
b10011 E
b101000 F
#975
0!
#980
b10101 :
1!
b10101 F
#985
0!
#990
11
02
16
07
b10 :
0;
1!
b10 F
#995
0!
#1000
01
12
06
17
b10 9
b10011 :
1;
1!
b10 E
b10011 F
#1005
0!
#1010
b10001 :
1!
b10001 F
#1015
0!
#1020
b1111 :
1!
b1111 F
#1025
0!
#1030
b1101 :
1!
b1101 F
#1035
0!
#1040
b1011 :
1!
b1011 F
#1045
0!
#1050
b1001 :
1!
b1001 F
#1055
0!
#1060
b111 :
1!
b111 F
#1065
0!
#1070
b101 :
1!
b101 F
#1075
0!
#1080
b11 :
1!
b11 F
#1085
0!
#1090
11
02
16
07
b1 :
0;
1!
b1 F
#1095
0!
#1100
01
12
06
17
b1 9
b10 :
1;
1!
b1 E
b10 F
#1105
0!
#1110
b1 :
1!
b1 F
#1115
0!
#1120
1#
1$
1'
1(
b10101 *
02
13
04
07
18
b0 :
0;
1<
1=
1>
1?
b101011 A
b10101 B
1!
b0 F
#1125
0!
#1130
0#
0$
0'
0(
b101110 )
11
03
14
16
08
b101011 9
b10101 :
0<
0=
0>
0?
1!
b101110 .
b10111 /
b101011 E
b10101 F
#1135
0!
#1140
01
12
06
17
b10101 9
b101011 :
1;
1!
b10101 E
b101011 F
#1145
0!
#1150
b10110 :
1!
b10110 F
#1155
0!
#1160
11
02
16
07
b1 :
0;
1!
b1 F
#1165
0!
#1170
01
12
06
17
b1 9
b10101 :
1;
1!
b1 E
b10101 F
#1175
0!
#1180
b10100 :
1!
b10100 F
#1185
0!
#1190
b10011 :
1!
b10011 F
#1195
0!
#1200
b10010 :
1!
b10010 F
#1205
0!
#1210
b10001 :
1!
b10001 F
#1215
0!
#1220
b10000 :
1!
b10000 F
#1225
0!
#1230
b1111 :
1!
b1111 F
#1235
0!
#1240
b1110 :
1!
b1110 F
#1245
0!
#1250
b1101 :
1!
b1101 F
#1255
0!
#1260
b1100 :
1!
b1100 F
#1265
0!
#1270
b1011 :
1!
b1011 F
#1275
0!
#1280
b1010 :
1!
b1010 F
#1285
0!
#1290
b1001 :
1!
b1001 F
#1295
0!
#1300
b1000 :
1!
b1000 F
#1305
0!
#1310
b111 :
1!
b111 F
#1315
0!
#1320
b110 :
1!
b110 F
#1325
0!
#1330
b101 :
1!
b101 F
#1335
0!
#1340
b100 :
1!
b100 F
#1345
0!
#1350
b11 :
1!
b11 F
#1355
0!
#1360
b10 :
1!
b10 F
#1365
0!
#1370
b1 :
1!
b1 F
#1375
0!
#1380
1#
1$
1'
1(
b10111 *
02
13
04
07
18
b0 :
0;
1<
1=
1>
1?
b101110 A
b10111 B
1!
b0 F
#1385
0!
#1390
0#
0$
0'
0(
b110001 )
11
03
14
16
08
b101110 9
b10111 :
0<
0=
0>
0?
1!
b110001 .
b11001 /
b101110 E
b10111 F
#1395
0!
#1400
01
12
06
17
b10111 9
b101110 :
1;
1!
b10111 E
b101110 F
#1405
0!
#1410
b10111 :
1!
b10111 F
#1415
0!
#1420
1#
1$
1'
1(
b11001 *
02
13
04
07
18
b0 :
0;
1<
1=
1>
1?
b10111 @
b110001 A
b11001 B
1!
b0 F
#1425
0!
#1430
0#
0$
0'
0(
b110100 )
11
03
14
16
08
b110001 9
b11001 :
0<
0=
0>
0?
1!
b110100 .
b11011 /
b10111 0
b110001 E
b11001 F
#1435
0!
#1440
01
12
06
17
b11001 9
b110001 :
1;
1!
b11001 E
b110001 F
#1445
0!
#1450
11
02
16
07
b11000 :
0;
1!
b11000 F
#1455
0!
#1460
01
12
06
17
b11000 9
b11001 :
1;
1!
b11000 E
b11001 F
#1465
0!
#1470
11
02
16
07
b1 :
0;
1!
b1 F
#1475
0!
#1480
01
12
06
17
b1 9
b11000 :
1;
1!
b1 E
b11000 F
#1485
0!
#1490
b10111 :
1!
b10111 F
#1495
0!
#1500
b10110 :
1!
b10110 F
#1505
0!
#1510
b10101 :
1!
b10101 F
#1515
0!
#1520
b10100 :
1!
b10100 F
#1525
0!
#1530
b10011 :
1!
b10011 F
#1535
0!
#1540
b10010 :
1!
b10010 F
#1545
0!
#1550
b10001 :
1!
b10001 F
#1555
0!
#1560
b10000 :
1!
b10000 F
#1565
0!
#1570
b1111 :
1!
b1111 F
#1575
0!
#1580
b1110 :
1!
b1110 F
#1585
0!
#1590
b1101 :
1!
b1101 F
#1595
0!
#1600
b1100 :
1!
b1100 F
#1605
0!
#1610
b1011 :
1!
b1011 F
#1615
0!
#1620
b1010 :
1!
b1010 F
#1625
0!
#1630
b1001 :
1!
b1001 F
#1635
0!
#1640
b1000 :
1!
b1000 F
#1645
0!
#1650
b111 :
1!
b111 F
#1655
0!
#1660
b110 :
1!
b110 F
#1665
0!
#1670
b101 :
1!
b101 F
#1675
0!
#1680
b100 :
1!
b100 F
#1685
0!
#1690
b11 :
1!
b11 F
#1695
0!
#1700
b10 :
1!
b10 F
#1705
0!
#1710
b1 :
1!
b1 F
#1715
0!
#1720
1#
1$
1'
1(
b11011 *
02
13
04
07
18
b0 :
0;
1<
1=
1>
1?
b1 @
b110100 A
b11011 B
1!
b0 F
#1725
0!
#1730
0#
0$
0'
0(
b110111 )
11
03
14
16
08
b110100 9
b11011 :
0<
0=
0>
0?
1!
b110111 .
b11101 /
b1 0
b110100 E
b11011 F
#1735
0!
#1740
01
12
06
17
b11011 9
b110100 :
1;
1!
b11011 E
b110100 F
#1745
0!
#1750
11
02
16
07
b11001 :
0;
1!
b11001 F
#1755
0!
#1760
01
12
06
17
b11001 9
b11011 :
1;
1!
b11001 E
b11011 F
#1765
0!
#1770
11
02
16
07
b10 :
0;
1!
b10 F
#1775
0!
#1780
01
12
06
17
b10 9
b11001 :
1;
1!
b10 E
b11001 F
#1785
0!
#1790
b10111 :
1!
b10111 F
#1795
0!
#1800
b10101 :
1!
b10101 F
#1805
0!
#1810
b10011 :
1!
b10011 F
#1815
0!
#1820
b10001 :
1!
b10001 F
#1825
0!
#1830
b1111 :
1!
b1111 F
#1835
0!
#1840
b1101 :
1!
b1101 F
#1845
0!
#1850
b1011 :
1!
b1011 F
#1855
0!
#1860
b1001 :
1!
b1001 F
#1865
0!
#1870
b111 :
1!
b111 F
#1875
0!
#1880
b101 :
1!
b101 F
#1885
0!
#1890
b11 :
1!
b11 F
#1895
0!
#1900
11
02
16
07
b1 :
0;
1!
b1 F
#1905
0!
#1910
01
12
06
17
b1 9
b10 :
1;
1!
b1 E
b10 F
#1915
0!
#1920
b1 :
1!
b1 F
#1925
0!
#1930
1#
1$
1'
1(
b11101 *
02
13
04
07
18
b0 :
0;
1<
1=
1>
1?
b110111 A
b11101 B
1!
b0 F
#1935
0!
#1940
0#
0$
0'
0(
b111010 )
11
03
14
16
08
b110111 9
b11101 :
0<
0=
0>
0?
1!
b111010 .
b11111 /
b110111 E
b11101 F
#1945
0!
#1950
01
12
06
17
b11101 9
b110111 :
1;
1!
b11101 E
b110111 F
#1955
0!
#1960
11
02
16
07
b11010 :
0;
1!
b11010 F
#1965
0!
#1970
01
12
06
17
b11010 9
b11101 :
1;
1!
b11010 E
b11101 F
#1975
0!
#1980
11
02
16
07
b11 :
0;
1!
b11 F
#1985
0!
#1990
01
12
06
17
b11 9
b11010 :
1;
1!
b11 E
b11010 F
#1995
0!
#2000
b10111 :
1!
b10111 F
#2005
0!
#2010
b10100 :
1!
b10100 F
#2015
0!
#2020
b10001 :
1!
b10001 F
#2025
0!
#2030
b1110 :
1!
b1110 F
#2035
0!
#2040
b1011 :
1!
b1011 F
#2045
0!
#2050
b1000 :
1!
b1000 F
#2055
0!
#2060
b101 :
1!
b101 F
#2065
0!
#2070
11
02
16
07
b10 :
0;
1!
b10 F
#2075
0!
#2080
01
12
06
17
b10 9
b11 :
1;
1!
b10 E
b11 F
#2085
0!
#2090
11
02
16
07
b1 :
0;
1!
b1 F
#2095
0!
#2100
01
12
06
17
b1 9
b10 :
1;
1!
b1 E
b10 F
#2105
0!
#2110
b1 :
1!
b1 F
#2115
0!
#2120
1#
1$
1'
1(
b11111 *
02
13
04
07
18
b0 :
0;
1<
1=
1>
1?
b111010 A
b11111 B
1!
b0 F
#2125
0!
#2130
0#
0$
0'
0(
b111101 )
11
03
14
16
08
b111010 9
b11111 :
0<
0=
0>
0?
1!
b111101 .
b100001 /
b111010 E
b11111 F
#2135
0!
#2140
01
12
06
17
b11111 9
b111010 :
1;
1!
b11111 E
b111010 F
#2145
0!
#2150
11
02
16
07
b11011 :
0;
1!
b11011 F
#2155
0!
#2160
01
12
06
17
b11011 9
b11111 :
1;
1!
b11011 E
b11111 F
#2165
0!
#2170
11
02
16
07
b100 :
0;
1!
b100 F
#2175
0!
#2180
01
12
06
17
b100 9
b11011 :
1;
1!
b100 E
b11011 F
#2185
0!
#2190
b10111 :
1!
b10111 F
#2195
0!
#2200
b10011 :
1!
b10011 F
#2205
0!
#2210
b1111 :
1!
b1111 F
#2215
0!
#2220
b1011 :
1!
b1011 F
#2225
0!
#2230
b111 :
1!
b111 F
#2235
0!
#2240
11
02
16
07
b11 :
0;
1!
b11 F
#2245
0!
#2250
01
12
06
17
b11 9
b100 :
1;
1!
b11 E
b100 F
#2255
0!
#2260
11
02
16
07
b1 :
0;
1!
b1 F
#2265
0!
#2270
01
12
06
17
b1 9
b11 :
1;
1!
b1 E
b11 F
#2275
0!
#2280
b10 :
1!
b10 F
#2285
0!
#2290
b1 :
1!
b1 F
#2295
0!
#2300
1#
1$
1'
1(
b100001 *
02
13
04
07
18
b0 :
0;
1<
1=
1>
1?
b111101 A
b100001 B
1!
b0 F
#2305
0!
#2310
0#
0$
0'
0(
b1000000 )
11
03
14
16
08
b111101 9
b100001 :
0<
0=
0>
0?
1!
b1000000 .
b100011 /
b111101 E
b100001 F
#2315
0!
#2320
01
12
06
17
b100001 9
b111101 :
1;
1!
b100001 E
b111101 F
#2325
0!
#2330
11
02
16
07
b11100 :
0;
1!
b11100 F
#2335
0!
#2340
01
12
06
17
b11100 9
b100001 :
1;
1!
b11100 E
b100001 F
#2345
0!
#2350
11
02
16
07
b101 :
0;
1!
b101 F
#2355
0!
#2360
01
12
06
17
b101 9
b11100 :
1;
1!
b101 E
b11100 F
#2365
0!
#2370
b10111 :
1!
b10111 F
#2375
0!
#2380
b10010 :
1!
b10010 F
#2385
0!
#2390
b1101 :
1!
b1101 F
#2395
0!
#2400
b1000 :
1!
b1000 F
#2405
0!
#2410
11
02
16
07
b11 :
0;
1!
b11 F
#2415
0!
#2420
01
12
06
17
b11 9
b101 :
1;
1!
b11 E
b101 F
#2425
0!
#2430
11
02
16
07
b10 :
0;
1!
b10 F
#2435
0!
#2440
01
12
06
17
b10 9
b11 :
1;
1!
b10 E
b11 F
#2445
0!
#2450
11
02
16
07
b1 :
0;
1!
b1 F
#2455
0!
#2460
01
12
06
17
b1 9
b10 :
1;
1!
b1 E
b10 F
#2465
0!
#2470
b1 :
1!
b1 F
#2475
0!
#2480
1#
1$
1'
1(
b100011 *
02
13
04
07
18
b0 :
0;
1<
1=
1>
1?
b1000000 A
b100011 B
1!
b0 F
#2485
0!
#2490
0#
0$
0'
0(
b1000011 )
11
03
14
16
08
b1000000 9
b100011 :
0<
0=
0>
0?
1!
b1000011 .
b100101 /
b1000000 E
b100011 F
#2495
0!
#2500
01
12
06
17
b100011 9
b1000000 :
1;
1!
b100011 E
b1000000 F
#2505
0!
#2510
11
02
16
07
b11101 :
0;
1!
b11101 F
#2515
0!
#2520
01
12
06
17
b11101 9
b100011 :
1;
1!
b11101 E
b100011 F
#2525
0!
#2530
11
02
16
07
b110 :
0;
1!
b110 F
#2535
0!
#2540
01
12
06
17
b110 9
b11101 :
1;
1!
b110 E
b11101 F
#2545
0!
#2550
b10111 :
1!
b10111 F
#2555
0!
#2560
b10001 :
1!
b10001 F
#2565
0!
#2570
b1011 :
1!
b1011 F
#2575
0!
#2580
11
02
16
07
b101 :
0;
1!
b101 F
#2585
0!
#2590
01
12
06
17
b101 9
b110 :
1;
1!
b101 E
b110 F
#2595
0!
#2600
11
02
16
07
b1 :
0;
1!
b1 F
#2605
0!
#2610
01
12
06
17
b1 9
b101 :
1;
1!
b1 E
b101 F
#2615
0!
#2620
b100 :
1!
b100 F
#2625
0!
#2630
b11 :
1!
b11 F
#2635
0!
#2640
b10 :
1!
b10 F
#2645
0!
#2650
b1 :
1!
b1 F
#2655
0!
#2660
1#
1$
1'
1(
b100101 *
02
13
04
07
18
b0 :
0;
1<
1=
1>
1?
b1000011 A
b100101 B
1!
b0 F
#2665
0!
#2670
0#
0$
0'
0(
b1000110 )
11
03
14
16
08
b1000011 9
b100101 :
0<
0=
0>
0?
1!
b1000110 .
b100111 /
b1000011 E
b100101 F
#2675
0!
#2680
01
12
06
17
b100101 9
b1000011 :
1;
1!
b100101 E
b1000011 F
#2685
0!
#2690
11
02
16
07
b11110 :
0;
1!
b11110 F
#2695
0!
#2700
01
12
06
17
b11110 9
b100101 :
1;
1!
b11110 E
b100101 F
#2705
0!
#2710
11
02
16
07
b111 :
0;
1!
b111 F
#2715
0!
#2720
01
12
06
17
b111 9
b11110 :
1;
1!
b111 E
b11110 F
#2725
0!
#2730
b10111 :
1!
b10111 F
#2735
0!
#2740
b10000 :
1!
b10000 F
#2745
0!
#2750
b1001 :
1!
b1001 F
#2755
0!
#2760
11
02
16
07
b10 :
0;
1!
b10 F
#2765
0!
#2770
01
12
06
17
b10 9
b111 :
1;
1!
b10 E
b111 F
#2775
0!
#2780
b101 :
1!
b101 F
#2785
0!
#2790
b11 :
1!
b11 F
#2795
0!
#2800
11
02
16
07
b1 :
0;
1!
b1 F
#2805
0!
#2810
01
12
06
17
b1 9
b10 :
1;
1!
b1 E
b10 F
#2815
0!
#2820
b1 :
1!
b1 F
#2825
0!
#2830
1#
1$
1'
1(
b100111 *
02
13
04
07
18
b0 :
0;
1<
1=
1>
1?
b1000110 A
b100111 B
1!
b0 F
#2835
0!
#2840
0#
0$
0'
0(
b1001001 )
11
03
14
16
08
b1000110 9
b100111 :
0<
0=
0>
0?
1!
b1001001 .
b101001 /
b1000110 E
b100111 F
#2845
0!
#2850
01
12
06
17
b100111 9
b1000110 :
1;
1!
b100111 E
b1000110 F
#2855
0!
#2860
11
02
16
07
b11111 :
0;
1!
b11111 F
#2865
0!
#2870
01
12
06
17
b11111 9
b100111 :
1;
1!
b11111 E
b100111 F
#2875
0!
#2880
11
02
16
07
b1000 :
0;
1!
b1000 F
#2885
0!
#2890
01
12
06
17
b1000 9
b11111 :
1;
1!
b1000 E
b11111 F
#2895
0!
#2900
b10111 :
1!
b10111 F
#2905
0!
#2910
b1111 :
1!
b1111 F
#2915
0!
#2920
11
02
16
07
b111 :
0;
1!
b111 F
#2925
0!
#2930
01
12
06
17
b111 9
b1000 :
1;
1!
b111 E
b1000 F
#2935
0!
#2940
11
02
16
07
b1 :
0;
1!
b1 F
#2945
0!
#2950
01
12
06
17
b1 9
b111 :
1;
1!
b1 E
b111 F
#2955
0!
#2960
b110 :
1!
b110 F
#2965
0!
#2970
b101 :
1!
b101 F
#2975
0!
#2980
b100 :
1!
b100 F
#2985
0!
#2990
b11 :
1!
b11 F
#2995
0!
#3000
b10 :
1!
b10 F
#3005
0!
#3010
b1 :
1!
b1 F
#3015
0!
#3020
1#
1$
1'
1(
b101001 *
02
13
04
07
18
b0 :
0;
1<
1=
1>
1?
b1001001 A
b101001 B
1!
b0 F
#3025
0!
#3030
0#
0$
0'
0(
b1001100 )
11
03
14
16
08
b1001001 9
b101001 :
0<
0=
0>
0?
1!
b1001100 .
b101011 /
b1001001 E
b101001 F
#3035
0!
#3040
01
12
06
17
b101001 9
b1001001 :
1;
1!
b101001 E
b1001001 F
#3045
0!
#3050
11
02
16
07
b100000 :
0;
1!
b100000 F
#3055
0!
#3060
01
12
06
17
b100000 9
b101001 :
1;
1!
b100000 E
b101001 F
#3065
0!
#3070
11
02
16
07
b1001 :
0;
1!
b1001 F
#3075
0!
#3080
01
12
06
17
b1001 9
b100000 :
1;
1!
b1001 E
b100000 F
#3085
0!
#3090
b10111 :
1!
b10111 F
#3095
0!
#3100
b1110 :
1!
b1110 F
#3105
0!
#3110
11
02
16
07
b101 :
0;
1!
b101 F
#3115
0!
#3120
01
12
06
17
b101 9
b1001 :
1;
1!
b101 E
b1001 F
#3125
0!
#3130
11
02
16
07
b100 :
0;
1!
b100 F
#3135
0!
#3140
01
12
06
17
b100 9
b101 :
1;
1!
b100 E
b101 F
#3145
0!
#3150
11
02
16
07
b1 :
0;
1!
b1 F
#3155
0!
#3160
01
12
06
17
b1 9
b100 :
1;
1!
b1 E
b100 F
#3165
0!
#3170
b11 :
1!
b11 F
#3175
0!
#3180
b10 :
1!
b10 F
#3185
0!
#3190
b1 :
1!
b1 F
#3195
0!
#3200
1#
1$
1'
1(
b101011 *
02
13
04
07
18
b0 :
0;
1<
1=
1>
1?
b1001100 A
b101011 B
1!
b0 F
#3205
0!
#3210
0#
0$
0'
0(
b1001111 )
11
03
14
16
08
b1001100 9
b101011 :
0<
0=
0>
0?
1!
b1001111 .
b101101 /
b1001100 E
b101011 F
#3215
0!
#3220
01
12
06
17
b101011 9
b1001100 :
1;
1!
b101011 E
b1001100 F
#3225
0!
#3230
11
02
16
07
b100001 :
0;
1!
b100001 F
#3235
0!
#3240
01
12
06
17
b100001 9
b101011 :
1;
1!
b100001 E
b101011 F
#3245
0!
#3250
11
02
16
07
b1010 :
0;
1!
b1010 F
#3255
0!
#3260
01
12
06
17
b1010 9
b100001 :
1;
1!
b1010 E
b100001 F
#3265
0!
#3270
b10111 :
1!
b10111 F
#3275
0!
#3280
b1101 :
1!
b1101 F
#3285
0!
#3290
11
02
16
07
b11 :
0;
1!
b11 F
#3295
0!
#3300
01
12
06
17
b11 9
b1010 :
1;
1!
b11 E
b1010 F
#3305
0!
#3310
b111 :
1!
b111 F
#3315
0!
#3320
b100 :
1!
b100 F
#3325
0!
#3330
11
02
16
07
b1 :
0;
1!
b1 F
#3335
0!
#3340
01
12
06
17
b1 9
b11 :
1;
1!
b1 E
b11 F
#3345
0!
#3350
b10 :
1!
b10 F
#3355
0!
#3360
b1 :
1!
b1 F
#3365
0!
#3370
1#
1$
1'
1(
b101101 *
02
13
04
07
18
b0 :
0;
1<
1=
1>
1?
b1001111 A
b101101 B
1!
b0 F
#3375
0!
#3380
0#
0$
0'
0(
b1010010 )
11
03
14
16
08
b1001111 9
b101101 :
0<
0=
0>
0?
1!
b1010010 .
b101111 /
b1001111 E
b101101 F
#3385
0!
#3390
01
12
06
17
b101101 9
b1001111 :
1;
1!
b101101 E
b1001111 F
#3395
0!
#3400
11
02
16
07
b100010 :
0;
1!
b100010 F
#3405
0!
#3410
01
12
06
17
b100010 9
b101101 :
1;
1!
b100010 E
b101101 F
#3415
0!
#3420
11
02
16
07
b1011 :
0;
1!
b1011 F
#3425
0!
#3430
01
12
06
17
b1011 9
b100010 :
1;
1!
b1011 E
b100010 F
#3435
0!
#3440
b10111 :
1!
b10111 F
#3445
0!
#3450
b1100 :
1!
b1100 F
#3455
0!
#3460
11
02
16
07
b1 :
0;
1!
b1 F
#3465
0!
#3470
01
12
06
17
b1 9
b1011 :
1;
1!
b1 E
b1011 F
#3475
0!
#3480
b1010 :
1!
b1010 F
#3485
0!
#3490
b1001 :
1!
b1001 F
#3495
0!
#3500
b1000 :
1!
b1000 F
#3505
0!
#3510
b111 :
1!
b111 F
#3515
0!
#3520
b110 :
1!
b110 F
#3525
0!
#3530
b101 :
1!
b101 F
#3535
0!
#3540
b100 :
1!
b100 F
#3545
0!
#3550
b11 :
1!
b11 F
#3555
0!
#3560
b10 :
1!
b10 F
#3565
0!
#3570
b1 :
1!
b1 F
#3575
0!
